{
    "users": [
        {
            "userId": 0,
            "permission_group": 0,
            "username": "admin",
            "password": "admin",
            "messages": [
                {
                    "from": "admin",
                    "date": "Thu Jun 17 11:22:41 2021",
                    "content": "test wiadomosc2"
                },
                {
                    "from": "admin",
                    "date": "Thu Jun 17 11:22:41 2021",
                    "content": "test wiadomosc2"
                }
            ]
        },
        {
            "userId": 1,
            "permission_group": "",
            "username": "",
            "password": "",
            "messages": [
                {
                    "from": "admin",
                    "date": "Fri Jun 18 22:20:00 2021",
                    "content": "bang"
                }
            ]
        },
        {
            "userId": 2,
            "permission_group": 1,
            "username": "user2",
            "password": "password2",
            "messages": [
                {
                    "from": "admin",
                    "date": "",
                    "content": "message for user2"
                },
                {
                    "from": "user3",
                    "date": "",
                    "content": "message to user2 from user3"
                },
                {
                    "from": "admin",
                    "date": "Fri Jun 18 10:56:16 2021",
                    "content": "hello"
                }
            ]
        },
        {
            "userId": 3,
            "permission_group": 1,
            "username": "user3",
            "password": "password3",
            "messages": [
                {
                    "from": "admin",
                    "date": "",
                    "content": "message to user3"
                },
                {
                    "from": "user1",
                    "date": "",
                    "content": "message to user3 from user1"
                },
                {
                    "from": "admin",
                    "date": "Thu Jun 17 13:39:59 2021",
                    "content": "test wiadomosc od admin"
                },
                {
                    "from": "admin",
                    "date": "Fri Jun 18 22:30:14 2021",
                    "content": "hello hello"
                }
            ]
        },
        {
            "userId": 4,
            "permission_group": 1,
            "username": "michu",
            "password": "haslo",
            "messages": []
        },
        {
            "userId": 5,
            "permission_group": 0,
            "username": "michu2",
            "password": "haslo",
            "messages": []
        }
    ]
}